{
  "base_url": "/user/tabatha11-tp_1-nyav0z3p/",
  "hostname": "0.0.0.0",
  "notebook_dir": "/home/jovyan",
  "password": false,
  "pid": 25,
  "port": 8888,
  "secure": false,
  "sock": "",
  "token": "u9tFANiiQYS9O3j_uk1nZA",
  "url": "http://0.0.0.0:8888/user/tabatha11-tp_1-nyav0z3p/"
}